{"hash":"574123693ccd19a08f441ff527f9cf95726d6f98","data":{"author":{"name":"tvN","path":"/author/tv-n/","bio":"A South Korean nationwide pay television network owned by the E&M Division of CJ E&M.","image":{"type":"image","mimeType":"image/png","src":"/6110110113_Assignment3_Gridsome/assets/static/tvN.77287e6.5fdb79529105ae14979db2b05d9a03a1.png","size":{"width":820,"height":365},"sizes":"(max-width: 820px) 100vw, 820px","srcset":["/6110110113_Assignment3_Gridsome/assets/static/tvN.1b91758.5fdb79529105ae14979db2b05d9a03a1.png 480w","/6110110113_Assignment3_Gridsome/assets/static/tvN.77287e6.5fdb79529105ae14979db2b05d9a03a1.png 820w"],"dataUri":"data:image/svg+xml,%3csvg fill='none' viewBox='0 0 820 365' xmlns='http://www.w3.org/2000/svg' xmlns:xlink='http://www.w3.org/1999/xlink'%3e%3cdefs%3e%3cfilter id='__svg-blur-9d31fd5f0fe6e9e13f56826548684048'%3e%3cfeGaussianBlur in='SourceGraphic' stdDeviation='40'/%3e%3c/filter%3e%3c/defs%3e%3cimage x='0' y='0' filter='url(%23__svg-blur-9d31fd5f0fe6e9e13f56826548684048)' width='820' height='365' xlink:href='data:image/png%3bbase64%2c/9j/2wBDAAYEBQYFBAYGBQYHBwYIChAKCgkJChQODwwQFxQYGBcUFhYaHSUfGhsjHBYWICwgIyYnKSopGR8tMC0oMCUoKSj/2wBDAQcHBwoIChMKChMoGhYaKCgoKCgoKCgoKCgoKCgoKCgoKCgoKCgoKCgoKCgoKCgoKCgoKCgoKCgoKCgoKCgoKCj/wAARCAAcAEADASIAAhEBAxEB/8QAGwAAAwACAwAAAAAAAAAAAAAABgcIAAQCAwX/xAA2EAACAQMCBAIGCAcAAAAAAAABAgMEBREABgcSITFRYQgTIkFxgRQVI2KRobLRMjNCc4KSwf/EABkBAAMBAQEAAAAAAAAAAAAAAAMEBQYAAf/EAC4RAAEDAgQBCwUAAAAAAAAAAAECAwQAEQUSITEGExQjMkFRcZGhsdFhgcHC8P/aAAwDAQACEQMRAD8Ap3OhW97zoqLclu2/RFaq7Vcyo8an2YE7sznx5QSF/HGl7xArOI9nF2un1lFS2VJSIkR4iyozcqgeznPUeeltw8t25bruCWr2xKouVOhlaeV16c3sk5YHJOTqc9NUFhtKTf8AH0raYbww05HXLfeQUgaWOgVbTMbaWJFwL/Na5Gs1NVfxA3xtvcoob5cmdqWVDPD6uMq69CQCF7EHuNPPd%2b6KWwbSnvQZZFaMGmXP813HsD/p8gdHalocCjtl3vUidw/JhqaTcL5XqlJJB27wO%2biLOkZvXjBebPuq5262U1tkpKWUxI8sbsxIAByQwHfPu1w4Wbr3duK9T1Nyu8ps1ujaoqsRRgNgEhMhffgn4A6TlXJPcrhVVPIzyys878ozjJLE6RlTSptJauL1qsB4YbZlutzsq8oG17AnxA1sPI1XWzNwx7h2lRXh%2bRDJETOq9kdchwM%2b7p08iNKra/FvcN%2b3ZQWuKktiwVNSI%2bYRPzCPPU/x9%2bUeGhnh5u76q2Ju21yycrNTmWmyf6nxGwH%2byn5HXb6Plu%2bl76aqK5WipnkB8GbCD9R13OlulpKTvvXgwGPAbnPPoBCepfs0uPcD7Ud%2bkbcfo%2b1aCgU4aqqedh4qi/uw1r%2bjbbvVWO7XFlw086wqT4IuT%2bbflrW49USV98tcczyBIqZioUjuXOfd5DR3wkoYaDYNtjg5sMZJGLdyS5/YaKkZ5pJ7B/e9IvrEbhpDad3Fa%2bZP6ilr6SFk9VX229xL7MyGmmP3l6qfmCR/jpcXfclxv9nsVlcM0VAhhiRSSZGLYBx4gYUfDz1SXFm3QXLYdxjqQcR8kqFe6sGHX8CR89Kng9tqgbe0E0oklamieeMORgOMAHt7s5%2bOl5TJ5xlSbBVqs4BiTYwjl3k5lMZreWnobUXXO0psHgncKXoK6oiCzuO7SykKRn7q5A%2bHnoC4BWWK7bluL1aB6aKieNx/c9j9PNpmcdYRVbXoqdndI3qwW5COuEbGtTgHbKegtd3kh5y8k6KxYg9ApIHbzOjKbBlIQNkiprExaMCkSlHpHVanxIHzap/3Da5bJfK621GfWUszRE%2bIB6H5jB07/Rst3qrNd7iy9Z51gU%2bSDJ/NhryeN1ho5t4R1X2iSz0yNJyEAMQSoPbwA/DTJ4RUUVBsK3xQc2GaR2LdyS5/YaFEYySiO69P8Q4qZOBNrtq5lv7n1Ff/2Q==' /%3e%3c/svg%3e"},"facebook":"https://www.facebook.com/cjtvngo","twitter":"https://www.twitter.com","linkedin":"http://tvn.tving.com/tvn","belongsTo":{"totalCount":8,"pageInfo":{"totalPages":2,"currentPage":2},"edges":[{"node":{"title":"Crash Landing on You","excerpt":"The lives of a South Korean heiress and a North Korean military officer collide when the former lands into North Korean territory after a paragliding accident.","image":{"type":"image","mimeType":"image/jpeg","src":"/6110110113_Assignment3_Gridsome/assets/static/crashlanding.4250cd3.c760eb46904762aaff88a88fadfb987b.jpg","size":{"width":800,"height":450},"sizes":"(max-width: 800px) 100vw, 800px","srcset":["/6110110113_Assignment3_Gridsome/assets/static/crashlanding.1b91758.c760eb46904762aaff88a88fadfb987b.jpg 480w","/6110110113_Assignment3_Gridsome/assets/static/crashlanding.4250cd3.c760eb46904762aaff88a88fadfb987b.jpg 800w"],"dataUri":"data:image/svg+xml,%3csvg fill='none' viewBox='0 0 800 450' xmlns='http://www.w3.org/2000/svg' xmlns:xlink='http://www.w3.org/1999/xlink'%3e%3cdefs%3e%3cfilter id='__svg-blur-03c108ecdb520bc73e9d78baf2532560'%3e%3cfeGaussianBlur in='SourceGraphic' stdDeviation='40'/%3e%3c/filter%3e%3c/defs%3e%3cimage x='0' y='0' filter='url(%23__svg-blur-03c108ecdb520bc73e9d78baf2532560)' width='800' height='450' xlink:href='data:image/jpeg%3bbase64%2c/9j/2wBDAAYEBQYFBAYGBQYHBwYIChAKCgkJChQODwwQFxQYGBcUFhYaHSUfGhsjHBYWICwgIyYnKSopGR8tMC0oMCUoKSj/2wBDAQcHBwoIChMKChMoGhYaKCgoKCgoKCgoKCgoKCgoKCgoKCgoKCgoKCgoKCgoKCgoKCgoKCgoKCgoKCgoKCgoKCj/wAARCAAkAEADASIAAhEBAxEB/8QAGwAAAQUBAQAAAAAAAAAAAAAABgACAwQFAQf/xAAzEAACAQMDAgQCCAcAAAAAAAABAgMEBREAEiEGMRNBUWFCgQcUFSIjMpHBQ3GCobLR8P/EABsBAAICAwEAAAAAAAAAAAAAAAEEBQYCAwcA/8QAKREAAgIBAgMHBQAAAAAAAAAAAQIAAxEEITFBYRIyUYGRscETIjM0Yv/aAAwDAQACEQMRAD8A5SWyWVBLGm9G/Y6dAkFQZEglhmaM4dYm5X/vXtqex3inouh7iZKiNainikZBu5O4cY/qOq1EJo%2bq%2bkzJQzxU1RbTCrucgL4IYDI8sqTnjvjUhq9UyWioiHT6VGr%2boGk7QCkjkkaOWWOMFtgAYnjsPfTbbcZpbpU2642uOlkjjEoMc6zxupOMHaBhgdWOour7XapZ6WlWWquCAgBI/wANWxxuY9/lnQ7031fSXLqKv%2b1fBorlUlFhDsdj8DcqnsDuA4OkrcuwHLnvHKiqKTz5bQxjmgQ4jpo0Y/Eq6ZLVbO8%2b0n1jX/Wszq%2bpnt1qSPxBTS1kyUqSsdoQMcM2ecYHn5Z1n9P00dP1DeLRC0s9LAEnh8SVpGhySrIS3JyRu0jbRWHxnJ9feOV3OUzjA6ZHtLd06oo7ZOsNZWbSdpdlhLLEG4UuRwuSNWpKiXxAWfep5DIe49tZfUlPbltV82xQTSeHHPVKGywRVKjI8sHGPfUNu6rtL0tMkFJL4CoIg%2b4MyADHI%2bWilJYkKvDoIS6jBY8ep%2bTA3r6err7lLHVPTN9RiEbS0yhEBYkj9xn217F1X1HHa/o9sFzoZqeCvNNCYoyWMUocbTEwHcELgZ7Htzrx9UWgroqyd4HSVpmaGRSw3BDtJ77jvbgYPnrS6kutLXdKUiy3KleqEVO8kcC8x/maUhMYG0j5Z99NNucxIL9vhB%2bprCiB3l3/AFhisco7FgxL548iwxoavFRJJIsjnLJLjdjz76M6OK4G3tXJEDQlJ40qIZwzBmQFh25BXcD3PProWdaCSmjgqqwyB5hIrIhTAEZDAk9iTjHlwfXXu1kYhZcAQvvC1F3u0FTc5Zam3qFLIG2ZzycY7Z4Ge%2brfUtdQT3Zq60JNTl4Fjdi/3jgc5IPI7d9MsN%2brLKYIKYqUqadVcyoCBsC4OPXk%2bf66kuvU1VPRVKTLEY2UxBPDAAyPzDAHP66iHvd7e2Djf5lzr0NVNJUVggDBJP8AIJ2x6Sha5jSfRl1DIWbxbjX0tK2Ry6jdJwfTjQ9Yjsue1ELI4K4J8t3GTrk99We2w2seMaeGpFQoK5/hBAP8jj31J0vElRcSZWkCiGR1KNtIb4flny1PVthgx8ZRjw2lyWZ5pR4hzt7fPWFOu6WVMlQ0jxttOMqSMg%2b3A0tLWDTPlCfqenfp9prZbquqWlppInQM/wARjU5OAATz6eQ0K0FPFVXW1Us6B4JJgjqfiB76WlrUdlmwbsAekM69Ql0hjQYRHnRR6AMAP7DUF1%2b5HGR5tgj%2bfH76WlqCXvidJt/Ws8vYQPp2P2hUEcEEgfIaPbnYqO1UNtq6MyrJUxJvDPkcorEj05OlpaslX5B5zl79wz//2Q==' /%3e%3c/svg%3e"},"path":"/blog/crash-landing-on-you/","timeToRead":3,"category":{"id":"Recommend","title":"Recommend"},"author":[{"id":"author3","name":"tvN","image":{"type":"image","mimeType":"image/png","src":"/6110110113_Assignment3_Gridsome/assets/static/tvN.3db9db9.5fdb79529105ae14979db2b05d9a03a1.png","size":{"width":24,"height":11},"sizes":"(max-width: 24px) 100vw, 24px","srcset":["/6110110113_Assignment3_Gridsome/assets/static/tvN.3db9db9.5fdb79529105ae14979db2b05d9a03a1.png 24w"],"dataUri":"data:image/svg+xml,%3csvg fill='none' viewBox='0 0 24 11' xmlns='http://www.w3.org/2000/svg' xmlns:xlink='http://www.w3.org/1999/xlink'%3e%3cdefs%3e%3cfilter id='__svg-blur-9d31fd5f0fe6e9e13f56826548684048'%3e%3cfeGaussianBlur in='SourceGraphic' stdDeviation='40'/%3e%3c/filter%3e%3c/defs%3e%3cimage x='0' y='0' filter='url(%23__svg-blur-9d31fd5f0fe6e9e13f56826548684048)' width='24' height='11' xlink:href='data:image/png%3bbase64%2c/9j/2wBDAAYEBQYFBAYGBQYHBwYIChAKCgkJChQODwwQFxQYGBcUFhYaHSUfGhsjHBYWICwgIyYnKSopGR8tMC0oMCUoKSj/2wBDAQcHBwoIChMKChMoGhYaKCgoKCgoKCgoKCgoKCgoKCgoKCgoKCgoKCgoKCgoKCgoKCgoKCgoKCgoKCgoKCgoKCj/wAARCAAcAEADASIAAhEBAxEB/8QAGwAAAwACAwAAAAAAAAAAAAAABgcIAAQCAwX/xAA2EAACAQMCBAIGCAcAAAAAAAABAgMEBREABgcSITFRYQgTIkFxgRQVI2KRobLRMjNCc4KSwf/EABkBAAMBAQEAAAAAAAAAAAAAAAMEBQYAAf/EAC4RAAEDAgQBCwUAAAAAAAAAAAECAwQAEQUSITEGExQjMkFRcZGhsdFhgcHC8P/aAAwDAQACEQMRAD8Ap3OhW97zoqLclu2/RFaq7Vcyo8an2YE7sznx5QSF/HGl7xArOI9nF2un1lFS2VJSIkR4iyozcqgeznPUeeltw8t25bruCWr2xKouVOhlaeV16c3sk5YHJOTqc9NUFhtKTf8AH0raYbww05HXLfeQUgaWOgVbTMbaWJFwL/Na5Gs1NVfxA3xtvcoob5cmdqWVDPD6uMq69CQCF7EHuNPPd%2b6KWwbSnvQZZFaMGmXP813HsD/p8gdHalocCjtl3vUidw/JhqaTcL5XqlJJB27wO%2biLOkZvXjBebPuq5262U1tkpKWUxI8sbsxIAByQwHfPu1w4Wbr3duK9T1Nyu8ps1ujaoqsRRgNgEhMhffgn4A6TlXJPcrhVVPIzyys878ozjJLE6RlTSptJauL1qsB4YbZlutzsq8oG17AnxA1sPI1XWzNwx7h2lRXh%2bRDJETOq9kdchwM%2b7p08iNKra/FvcN%2b3ZQWuKktiwVNSI%2bYRPzCPPU/x9%2bUeGhnh5u76q2Ju21yycrNTmWmyf6nxGwH%2byn5HXb6Plu%2bl76aqK5WipnkB8GbCD9R13OlulpKTvvXgwGPAbnPPoBCepfs0uPcD7Ud%2bkbcfo%2b1aCgU4aqqedh4qi/uw1r%2bjbbvVWO7XFlw086wqT4IuT%2bbflrW49USV98tcczyBIqZioUjuXOfd5DR3wkoYaDYNtjg5sMZJGLdyS5/YaKkZ5pJ7B/e9IvrEbhpDad3Fa%2bZP6ilr6SFk9VX229xL7MyGmmP3l6qfmCR/jpcXfclxv9nsVlcM0VAhhiRSSZGLYBx4gYUfDz1SXFm3QXLYdxjqQcR8kqFe6sGHX8CR89Kng9tqgbe0E0oklamieeMORgOMAHt7s5%2bOl5TJ5xlSbBVqs4BiTYwjl3k5lMZreWnobUXXO0psHgncKXoK6oiCzuO7SykKRn7q5A%2bHnoC4BWWK7bluL1aB6aKieNx/c9j9PNpmcdYRVbXoqdndI3qwW5COuEbGtTgHbKegtd3kh5y8k6KxYg9ApIHbzOjKbBlIQNkiprExaMCkSlHpHVanxIHzap/3Da5bJfK621GfWUszRE%2bIB6H5jB07/Rst3qrNd7iy9Z51gU%2bSDJ/NhryeN1ho5t4R1X2iSz0yNJyEAMQSoPbwA/DTJ4RUUVBsK3xQc2GaR2LdyS5/YaFEYySiO69P8Q4qZOBNrtq5lv7n1Ff/2Q==' /%3e%3c/svg%3e"},"path":"/author/tv-n/"}]}},{"node":{"title":"Goblin","excerpt":"A romantic fantasy drama, the series follows the story of a 939-year-old Goblin, also known as the Protector of Souls, as he ends up falling for the girl destined to end his cursed immortal life.","image":{"type":"image","mimeType":"image/jpeg","src":"/6110110113_Assignment3_Gridsome/assets/static/goblin.a151fe0.de38ff35c4626a0db43a523df8c50733.jpg","size":{"width":680,"height":390},"sizes":"(max-width: 680px) 100vw, 680px","srcset":["/6110110113_Assignment3_Gridsome/assets/static/goblin.a151fe0.de38ff35c4626a0db43a523df8c50733.jpg 680w"],"dataUri":"data:image/svg+xml,%3csvg fill='none' viewBox='0 0 680 390' xmlns='http://www.w3.org/2000/svg' xmlns:xlink='http://www.w3.org/1999/xlink'%3e%3cdefs%3e%3cfilter id='__svg-blur-4368cda689bf34bd4eac80496dfe0fd0'%3e%3cfeGaussianBlur in='SourceGraphic' stdDeviation='40'/%3e%3c/filter%3e%3c/defs%3e%3cimage x='0' y='0' filter='url(%23__svg-blur-4368cda689bf34bd4eac80496dfe0fd0)' width='680' height='390' xlink:href='data:image/jpeg%3bbase64%2c/9j/2wBDAAYEBQYFBAYGBQYHBwYIChAKCgkJChQODwwQFxQYGBcUFhYaHSUfGhsjHBYWICwgIyYnKSopGR8tMC0oMCUoKSj/2wBDAQcHBwoIChMKChMoGhYaKCgoKCgoKCgoKCgoKCgoKCgoKCgoKCgoKCgoKCgoKCgoKCgoKCgoKCgoKCgoKCgoKCj/wAARCAAlAEADASIAAhEBAxEB/8QAGwAAAgMBAQEAAAAAAAAAAAAABQYABAcIAgP/xAAuEAABAwMDAgUEAQUAAAAAAAABAgMEAAURBhIhMUETIlFxgQcUMmGxFUNzkZL/xAAYAQEAAwEAAAAAAAAAAAAAAAADAAECBP/EAB4RAAICAgMBAQAAAAAAAAAAAAABAhEDIRIiMVFx/9oADAMBAAIRAxEAPwDQQpZVwTnvmvTm/djk%2bXNWFNAEH9j%2baTNa2lF8vEmE/MXDXEhJkxVpcIAUVK3KKRwr8Ujnpn90TdKzUI83SGhACGXXHVbUoBUonsByaUbdqBWoHg5Ft0liCUrUzKdWnD204PlHI%2bfSilu1Cy39MmbvdnN4QyW3TjBdUFFGMeqsD/dUtA32Fe7VEbigoXFR4UiOUjc04Tg5IGFAgZBHqajutFpRV8vS82qdJMxq2PoYSz5XH1o3gLxnaE5AJAIJJPGaLM3B2NGhMTltOTVMlx9TfCEhCQVrx6dMe4pTulskXO0qhuw/BUzcFrecdR%2bafFKvJ6gjaVH0BHtVkWK4Ph5W9SHVsIVgSQrzknxBnPOSEE9sZrRg0KwzDNgMylLSfHTvwjogE8DPcjufWry1AqJBPTpSRYrZJjXOK/IyEpCk4So4BCcDj9la/wDkU0JlMrlKjB9oyEp3KaCwVgepT1xUIZZ9Rb1rmJqOUbCh9m1xEIKcRwsO8BRJ4JPJxj0FDp%2bobnd71HvLqUQ5MdrwWm04y103nnvnPtUlaq1MNSXG1R5aSi4NIkF1YwWCBg7AOMcdD35oHfZ0TSs1u1zA9MdS34hfaIBO73%2baqcZPrR0Y3BbC9%2bkJOg2IaniYn9Rbe56AFKlEe24ZxSj9MtSuae1My8vcuDLWlqQ37q8qh%2bwT/NEddXRqXpu3TI0lpaJEpLnhNjlG1CgQRjgjPSkpbjbDjAYUXFNqB3D8VYVlOO4PQfFLiXSmFkpytHQ31F1NEtd2XHU3OlLjHL4jtjYxuGAVLPAJ7Cr1jct95tTdwiTDsWCnBQEqSehCh6jFUNNamsmp3pZk2yWXp0cffRnEK8%2b3CU/jwrk47furek0W6BBl2yGtEBUaYpqQ0sgBpxZzjceox8DGO1C5eqjTh0Ukz66jnp05p6WtExf3cnCYaSBuU4rCRsHfk5pS1e9brNctLQLChC7u1NS44vG6QtCiQre4PyChng9MGt2u9otGoIaLbdIzUqPGcSpsK42rQeCCORyKXtb6Mt029xNUGQqPOtreElsDDuTgBWe2CR81dbTMxmkmvphD6ivXDAP9yB5iP8lA/qnCCrtant5CpCHArjoEkEfzUqV0hL0C26B9/pQrU6UeA%2btwDGQeAMVTtTYflDd0Zw5j15AqVKOMnb/RWlSNA07dn4TyZkfyOSDHaWAojyfcNEjj2oFqKc47dJTqshyQ644sg9SVE/NSpSBHRmkr4DY4DciN4rqmEbnvEIUokcnp6mi2oH1x7LCQFKX9y4paio5IA4AqVK5Itt7GyRUao//Z' /%3e%3c/svg%3e"},"path":"/blog/goblin/","timeToRead":4,"category":{"id":"Fantasy, Romance, Drama","title":"Fantasy, Romance, Drama"},"author":[{"id":"author3","name":"tvN","image":{"type":"image","mimeType":"image/png","src":"/6110110113_Assignment3_Gridsome/assets/static/tvN.3db9db9.5fdb79529105ae14979db2b05d9a03a1.png","size":{"width":24,"height":11},"sizes":"(max-width: 24px) 100vw, 24px","srcset":["/6110110113_Assignment3_Gridsome/assets/static/tvN.3db9db9.5fdb79529105ae14979db2b05d9a03a1.png 24w"],"dataUri":"data:image/svg+xml,%3csvg fill='none' viewBox='0 0 24 11' xmlns='http://www.w3.org/2000/svg' xmlns:xlink='http://www.w3.org/1999/xlink'%3e%3cdefs%3e%3cfilter id='__svg-blur-9d31fd5f0fe6e9e13f56826548684048'%3e%3cfeGaussianBlur in='SourceGraphic' stdDeviation='40'/%3e%3c/filter%3e%3c/defs%3e%3cimage x='0' y='0' filter='url(%23__svg-blur-9d31fd5f0fe6e9e13f56826548684048)' width='24' height='11' xlink:href='data:image/png%3bbase64%2c/9j/2wBDAAYEBQYFBAYGBQYHBwYIChAKCgkJChQODwwQFxQYGBcUFhYaHSUfGhsjHBYWICwgIyYnKSopGR8tMC0oMCUoKSj/2wBDAQcHBwoIChMKChMoGhYaKCgoKCgoKCgoKCgoKCgoKCgoKCgoKCgoKCgoKCgoKCgoKCgoKCgoKCgoKCgoKCgoKCj/wAARCAAcAEADASIAAhEBAxEB/8QAGwAAAwACAwAAAAAAAAAAAAAABgcIAAQCAwX/xAA2EAACAQMCBAIGCAcAAAAAAAABAgMEBREABgcSITFRYQgTIkFxgRQVI2KRobLRMjNCc4KSwf/EABkBAAMBAQEAAAAAAAAAAAAAAAMEBQYAAf/EAC4RAAEDAgQBCwUAAAAAAAAAAAECAwQAEQUSITEGExQjMkFRcZGhsdFhgcHC8P/aAAwDAQACEQMRAD8Ap3OhW97zoqLclu2/RFaq7Vcyo8an2YE7sznx5QSF/HGl7xArOI9nF2un1lFS2VJSIkR4iyozcqgeznPUeeltw8t25bruCWr2xKouVOhlaeV16c3sk5YHJOTqc9NUFhtKTf8AH0raYbww05HXLfeQUgaWOgVbTMbaWJFwL/Na5Gs1NVfxA3xtvcoob5cmdqWVDPD6uMq69CQCF7EHuNPPd%2b6KWwbSnvQZZFaMGmXP813HsD/p8gdHalocCjtl3vUidw/JhqaTcL5XqlJJB27wO%2biLOkZvXjBebPuq5262U1tkpKWUxI8sbsxIAByQwHfPu1w4Wbr3duK9T1Nyu8ps1ujaoqsRRgNgEhMhffgn4A6TlXJPcrhVVPIzyys878ozjJLE6RlTSptJauL1qsB4YbZlutzsq8oG17AnxA1sPI1XWzNwx7h2lRXh%2bRDJETOq9kdchwM%2b7p08iNKra/FvcN%2b3ZQWuKktiwVNSI%2bYRPzCPPU/x9%2bUeGhnh5u76q2Ju21yycrNTmWmyf6nxGwH%2byn5HXb6Plu%2bl76aqK5WipnkB8GbCD9R13OlulpKTvvXgwGPAbnPPoBCepfs0uPcD7Ud%2bkbcfo%2b1aCgU4aqqedh4qi/uw1r%2bjbbvVWO7XFlw086wqT4IuT%2bbflrW49USV98tcczyBIqZioUjuXOfd5DR3wkoYaDYNtjg5sMZJGLdyS5/YaKkZ5pJ7B/e9IvrEbhpDad3Fa%2bZP6ilr6SFk9VX229xL7MyGmmP3l6qfmCR/jpcXfclxv9nsVlcM0VAhhiRSSZGLYBx4gYUfDz1SXFm3QXLYdxjqQcR8kqFe6sGHX8CR89Kng9tqgbe0E0oklamieeMORgOMAHt7s5%2bOl5TJ5xlSbBVqs4BiTYwjl3k5lMZreWnobUXXO0psHgncKXoK6oiCzuO7SykKRn7q5A%2bHnoC4BWWK7bluL1aB6aKieNx/c9j9PNpmcdYRVbXoqdndI3qwW5COuEbGtTgHbKegtd3kh5y8k6KxYg9ApIHbzOjKbBlIQNkiprExaMCkSlHpHVanxIHzap/3Da5bJfK621GfWUszRE%2bIB6H5jB07/Rst3qrNd7iy9Z51gU%2bSDJ/NhryeN1ho5t4R1X2iSz0yNJyEAMQSoPbwA/DTJ4RUUVBsK3xQc2GaR2LdyS5/YaFEYySiO69P8Q4qZOBNrtq5lv7n1Ff/2Q==' /%3e%3c/svg%3e"},"path":"/author/tv-n/"}]}},{"node":{"title":"Reply 1988","excerpt":"Five childhood friends who live in the same neighborhood of Ssangmundong rely on each other as they enter the peak of their turbulent teen years.","image":{"type":"image","mimeType":"image/jpeg","src":"/6110110113_Assignment3_Gridsome/assets/static/reply1988.81e9da1.bd7dc556f07283227c3a262ce1628633.jpg","size":{"width":777,"height":411},"sizes":"(max-width: 777px) 100vw, 777px","srcset":["/6110110113_Assignment3_Gridsome/assets/static/reply1988.81e9da1.bd7dc556f07283227c3a262ce1628633.jpg 777w"],"dataUri":"data:image/svg+xml,%3csvg fill='none' viewBox='0 0 777 411' xmlns='http://www.w3.org/2000/svg' xmlns:xlink='http://www.w3.org/1999/xlink'%3e%3cdefs%3e%3cfilter id='__svg-blur-249b20025b9be6fe5d75aa651de3961e'%3e%3cfeGaussianBlur in='SourceGraphic' stdDeviation='40'/%3e%3c/filter%3e%3c/defs%3e%3cimage x='0' y='0' filter='url(%23__svg-blur-249b20025b9be6fe5d75aa651de3961e)' width='777' height='411' xlink:href='data:image/jpeg%3bbase64%2c/9j/2wBDAAYEBQYFBAYGBQYHBwYIChAKCgkJChQODwwQFxQYGBcUFhYaHSUfGhsjHBYWICwgIyYnKSopGR8tMC0oMCUoKSj/2wBDAQcHBwoIChMKChMoGhYaKCgoKCgoKCgoKCgoKCgoKCgoKCgoKCgoKCgoKCgoKCgoKCgoKCgoKCgoKCgoKCgoKCj/wAARCAAiAEADASIAAhEBAxEB/8QAGwAAAgIDAQAAAAAAAAAAAAAABQYABAIDBwH/xAAzEAACAgEDAwMCBAMJAAAAAAABAgMEEQAFIQYSMRNBUSJhFBUycQcWkSMzUmKBkqGx0f/EABgBAQADAQAAAAAAAAAAAAAAAAMCBAUA/8QAJhEAAQMDAgUFAAAAAAAAAAAAAQACAxESITFxBCIyQVETM2GBwf/aAAwDAQACEQMRAD8AD7Pcrbtsdh7LLHPAD6n9kcBfAIIbIPt4xp46DtVoYK0DyAWJFJYDLcAgD5wOfPjnSvuHpUNks7fUpwLUWOWX6JGd3csmVJZQSOfGim62KfSstaveuqr2K0ckrqP088Iw84z4x9%2bNYxYS6rQtM00OKrrNa2g74iRnBU8jjjS32flZk26bcpJJlVWdvQUd4ceB9XH6T/XSvu9mYbMd2221DLtbSG2ZVYj9R7SP2GjOw2LNvaIdxobxZsUW7g8i4OZAOAufAB4I%2b2nkNw5sKuxmaNymCvulNbKxepMWtSrCCV%2bT%2b/3GtHWKQTwfgZEEiQqqBvc/Pv8AI1QsdXmptX5nadnrAOrRkdpZsgL2Dz/izpIudRwNeuQ04gI69cWrHpscHwMZyefqGTpeFYwHOVCdrgMYKJbq1NX9FfxFpoEWI9g7AoxwMsc4%2bDjWlJ8xL6FKtGqcgzZkYZ%2b/A1Rp9Rw7/u6xRQSekKvdI5wCgXwn3AzwffPjXtDc9oZjF%2bMQuXKoFHBGP/dV5Q4Yorcdu6y6qlrhpz3L2CtIXP8Am7kz/wBaMW%2bnDv8Au1bfobcadlaKNF7Q/dKoI5z4A8fOdDOra9TcjXgruALEMkasngrgEYA49hoh0zuibJs%2b41Zv0UrCgMykKUkRWH%2boOcgfI10OTaulJqHNWfVW7x9IbHXrJTS2LBaNUICoD5Zjx8nI%2b%2bqHSvUv87RT9K1Kq13TFpC5CrOqsC6MFGBn7e2hPXMNnda4mo3zelllaVI2bsjSLHPZkc8YB850E6IO4bRdn3w2Nshs0YU7IGP97GzYOewfqPgE86csYWXfSMeo11p3TJvvTtxd1qbDOte5WrWYhLH3mMF5u5lRQPKqMDP/ABxoLY2temr%2b7SVo0fbLlCaCxErBDV5GAp5yM8Z0Zm6rn3C1JasWI6zI4eeMt2tWbPPBByuMHP3xpb3yCruFBJNuuWfzC7YlOX4jsL3FgOeFxjj9udTbyvAcfjZJNWRgcCDiqvdMWdkrfmdmkbEXeiQukwwI0ABzgeSxHt9/nVO9W26xco/gFhhkSUBUDknLHJLe2OfGeNDekYryS3Fs0bDU5q7wZjKtg5yCRnxn39tXOmdsk3WxZqj1I7dWRO3txyfqJB/28HUZm2SFtagUofOETDc2vlXf4ZsZI3ZyWZJ/pJ5K8e3xq1/FmR/Sjj727DZLFc8E9i841NTR8L7x2TwdUe6QtplkbcEVnYqsiqATwASMjXQ99rw14uoY4Io4o1o1yFRQoB9Qew1NTVqXQb/oVzjtW7FAes4Y03%2bIpGimS%2bUchQO9e6Lg/I%2b2nrquvD%2bQ9RD0o8RVZTH9I%2bg9vkfGpqamNAsQ9S51Ynmj3dkjlkVO2H6VYgcxpn%2budZyO0HVExgYxn8ZGPoOPZvjU1NFJ2SR91//Z' /%3e%3c/svg%3e"},"path":"/blog/reply-1988/","timeToRead":6,"category":{"id":"Family, Comedy, Romance","title":"Family, Comedy, Romance"},"author":[{"id":"author3","name":"tvN","image":{"type":"image","mimeType":"image/png","src":"/6110110113_Assignment3_Gridsome/assets/static/tvN.3db9db9.5fdb79529105ae14979db2b05d9a03a1.png","size":{"width":24,"height":11},"sizes":"(max-width: 24px) 100vw, 24px","srcset":["/6110110113_Assignment3_Gridsome/assets/static/tvN.3db9db9.5fdb79529105ae14979db2b05d9a03a1.png 24w"],"dataUri":"data:image/svg+xml,%3csvg fill='none' viewBox='0 0 24 11' xmlns='http://www.w3.org/2000/svg' xmlns:xlink='http://www.w3.org/1999/xlink'%3e%3cdefs%3e%3cfilter id='__svg-blur-9d31fd5f0fe6e9e13f56826548684048'%3e%3cfeGaussianBlur in='SourceGraphic' stdDeviation='40'/%3e%3c/filter%3e%3c/defs%3e%3cimage x='0' y='0' filter='url(%23__svg-blur-9d31fd5f0fe6e9e13f56826548684048)' width='24' height='11' xlink:href='data:image/png%3bbase64%2c/9j/2wBDAAYEBQYFBAYGBQYHBwYIChAKCgkJChQODwwQFxQYGBcUFhYaHSUfGhsjHBYWICwgIyYnKSopGR8tMC0oMCUoKSj/2wBDAQcHBwoIChMKChMoGhYaKCgoKCgoKCgoKCgoKCgoKCgoKCgoKCgoKCgoKCgoKCgoKCgoKCgoKCgoKCgoKCgoKCj/wAARCAAcAEADASIAAhEBAxEB/8QAGwAAAwACAwAAAAAAAAAAAAAABgcIAAQCAwX/xAA2EAACAQMCBAIGCAcAAAAAAAABAgMEBREABgcSITFRYQgTIkFxgRQVI2KRobLRMjNCc4KSwf/EABkBAAMBAQEAAAAAAAAAAAAAAAMEBQYAAf/EAC4RAAEDAgQBCwUAAAAAAAAAAAECAwQAEQUSITEGExQjMkFRcZGhsdFhgcHC8P/aAAwDAQACEQMRAD8Ap3OhW97zoqLclu2/RFaq7Vcyo8an2YE7sznx5QSF/HGl7xArOI9nF2un1lFS2VJSIkR4iyozcqgeznPUeeltw8t25bruCWr2xKouVOhlaeV16c3sk5YHJOTqc9NUFhtKTf8AH0raYbww05HXLfeQUgaWOgVbTMbaWJFwL/Na5Gs1NVfxA3xtvcoob5cmdqWVDPD6uMq69CQCF7EHuNPPd%2b6KWwbSnvQZZFaMGmXP813HsD/p8gdHalocCjtl3vUidw/JhqaTcL5XqlJJB27wO%2biLOkZvXjBebPuq5262U1tkpKWUxI8sbsxIAByQwHfPu1w4Wbr3duK9T1Nyu8ps1ujaoqsRRgNgEhMhffgn4A6TlXJPcrhVVPIzyys878ozjJLE6RlTSptJauL1qsB4YbZlutzsq8oG17AnxA1sPI1XWzNwx7h2lRXh%2bRDJETOq9kdchwM%2b7p08iNKra/FvcN%2b3ZQWuKktiwVNSI%2bYRPzCPPU/x9%2bUeGhnh5u76q2Ju21yycrNTmWmyf6nxGwH%2byn5HXb6Plu%2bl76aqK5WipnkB8GbCD9R13OlulpKTvvXgwGPAbnPPoBCepfs0uPcD7Ud%2bkbcfo%2b1aCgU4aqqedh4qi/uw1r%2bjbbvVWO7XFlw086wqT4IuT%2bbflrW49USV98tcczyBIqZioUjuXOfd5DR3wkoYaDYNtjg5sMZJGLdyS5/YaKkZ5pJ7B/e9IvrEbhpDad3Fa%2bZP6ilr6SFk9VX229xL7MyGmmP3l6qfmCR/jpcXfclxv9nsVlcM0VAhhiRSSZGLYBx4gYUfDz1SXFm3QXLYdxjqQcR8kqFe6sGHX8CR89Kng9tqgbe0E0oklamieeMORgOMAHt7s5%2bOl5TJ5xlSbBVqs4BiTYwjl3k5lMZreWnobUXXO0psHgncKXoK6oiCzuO7SykKRn7q5A%2bHnoC4BWWK7bluL1aB6aKieNx/c9j9PNpmcdYRVbXoqdndI3qwW5COuEbGtTgHbKegtd3kh5y8k6KxYg9ApIHbzOjKbBlIQNkiprExaMCkSlHpHVanxIHzap/3Da5bJfK621GfWUszRE%2bIB6H5jB07/Rst3qrNd7iy9Z51gU%2bSDJ/NhryeN1ho5t4R1X2iSz0yNJyEAMQSoPbwA/DTJ4RUUVBsK3xQc2GaR2LdyS5/YaFEYySiO69P8Q4qZOBNrtq5lv7n1Ff/2Q==' /%3e%3c/svg%3e"},"path":"/author/tv-n/"}]}}]}}},"context":{}}