{"hash":"4c6a837c8b17cc33541652754af96fef7c4d3bbf","data":{"entries":{"totalCount":13,"pageInfo":{"totalPages":3,"currentPage":3},"edges":[{"node":{"title":"Vincenzo","excerpt":"Vincenzo Cassano, a South Korean-born Mafia lawyer in Italy, flees to his homeland after he finds himself caught in between two warring factions.","image":{"type":"image","mimeType":"image/jpeg","src":"/6110110113_Assignment3_Gridsome/assets/static/vincenzo.2b6647f.3ce41e7d960628f8053a1353159908e2.jpg","size":{"width":758,"height":505},"sizes":"(max-width: 758px) 100vw, 758px","srcset":["/6110110113_Assignment3_Gridsome/assets/static/vincenzo.2b6647f.3ce41e7d960628f8053a1353159908e2.jpg 758w"],"dataUri":"data:image/svg+xml,%3csvg fill='none' viewBox='0 0 758 505' xmlns='http://www.w3.org/2000/svg' xmlns:xlink='http://www.w3.org/1999/xlink'%3e%3cdefs%3e%3cfilter id='__svg-blur-628646f6088ae2fb23121159174183b1'%3e%3cfeGaussianBlur in='SourceGraphic' stdDeviation='40'/%3e%3c/filter%3e%3c/defs%3e%3cimage x='0' y='0' filter='url(%23__svg-blur-628646f6088ae2fb23121159174183b1)' width='758' height='505' xlink:href='data:image/jpeg%3bbase64%2c/9j/2wBDAAYEBQYFBAYGBQYHBwYIChAKCgkJChQODwwQFxQYGBcUFhYaHSUfGhsjHBYWICwgIyYnKSopGR8tMC0oMCUoKSj/2wBDAQcHBwoIChMKChMoGhYaKCgoKCgoKCgoKCgoKCgoKCgoKCgoKCgoKCgoKCgoKCgoKCgoKCgoKCgoKCgoKCgoKCj/wAARCAArAEADASIAAhEBAxEB/8QAGQAAAwEBAQAAAAAAAAAAAAAABQYHAwQB/8QAMBAAAgEDAwIFAgUFAQAAAAAAAQIDBAURAAYhEjEHE0FRYRQyInGBkcEVFiNC0aH/xAAXAQEAAwAAAAAAAAAAAAAAAAAAAQID/8QAGREBAAMBAQAAAAAAAAAAAAAAAAIDERIB/9oADAMBAAIRAxEAPwCMXjflxnnY0J%2bmgBwoXBJHyT66JbW37JLWwUl4QFZGCCcDBBJ46h7aL0HhHFFZxcL/AHWOnj8okHrAxJjhCCO45zzpW3ntBNq3%2b2wmoSUSyI/lRMWcJ1DByfVvQaCtV/RS08k05CRxqWZjwABpKOzd4bst5uy1MFut0mXp4Wdg7J3BIUeo550%2bb3s8l223VUVP1iSYoMAclesFh%2bwOt/EWCi29ZAtNUNUvW%2bTCsDPHH5MKuMgLjLZHGTn%2bNBJtlXe5f3Q1lvE6zfhZVY4%2b5R2BxznT1uO40%2b37RJW1C9ZBCogOC7HsNT%2b1UNIfFakWjqzJCszMH8sJkhSekBeNNm/Whq90bXtk7AQmrjkmB7dJcD/v76DaO0eIf9HF9lt1DHQtH5y0ztiUp37d%2b3uc679u3iiv9PI9JlZIiFljcYZD/wA%2bdPW7q5YOqxz3Rut4papqryx5cYAHSnl9ee2eT66gfh/WJB4hzxwys0FQGjyRjrPccfoToKtvy4x2umf6qrnioqgllWGNXPmYwc9XHbn4%2bdIOyq6a6bye%2b3Ond7bGGQVUwBWJgMLkn29/c6dbvXWq71K0VfTS1sNPIplWN8AEg8H39CRpK8QL%2bsVOlotUcdHRxHPkxfaD8%2b5/nQWN5wE60PcZBHqNTjxFuN6gsDR1tJRT0btiKs6S0qj0/LGNIVk3PXWSPpp6%2baoUj8UUpLpn4z2/TVL3Due4T0OyKOkpLXMK2n82ojqFBRjx3JIwO5/PQL3hBaqSalkvMoaSsEzxozH7RgZOPc576B%2bIUlRJvKqkL9JpwDBjuvSAQfzzk6yrtzVu3N2XIW%2bSikpjIA8UYIhc45Zecj2z8aBbjvbXi5PX%2bT5DugUqG6gSPXOgZ9x7pul/sVHV1tJTxuylDUwxYaXHBBP6dtJm3q36G9U9U3UsiTBg%2bceuD/OjNu3LLbtoLaaIxTVE87ylnTqECEAYGf8AYnn40ESEqhLsWI4Gff30Dpb7qLZZeoNmVgZCSeSx99I9fVtUVbO7Fue/v763uEjmONSx6fb9NB8nOgM2WrSlvFBPIgdIqiN2UjIYBgcYOqi95tsd5twuVtg%2bnhkmgign6VTpWJMnBJPTkN088t66kVsRZKtVcdS88HW1zC0wBgVVLE54Bz%2b%2bsrK%2b/d1eMsVOluFO1dXyUVCsgekiLinSnf6c5YlkXBLyjKgKOMdWTnGpHWzRvN/gjeNFGMO3USfU9h%2b2ubz3k6QxXg5GFAP/AJrxfu1NcOESlrrt7BWdT37jXTLLzhew0PQkTca0YnA51oq//9k=' /%3e%3c/svg%3e"},"path":"/blog/vincenzo/","timeToRead":2,"category":{"id":"Recommend","title":"Recommend"},"author":[{"id":"author3","name":"tvN","image":{"type":"image","mimeType":"image/png","src":"/6110110113_Assignment3_Gridsome/assets/static/tvN.3db9db9.5fdb79529105ae14979db2b05d9a03a1.png","size":{"width":24,"height":11},"sizes":"(max-width: 24px) 100vw, 24px","srcset":["/6110110113_Assignment3_Gridsome/assets/static/tvN.3db9db9.5fdb79529105ae14979db2b05d9a03a1.png 24w"],"dataUri":"data:image/svg+xml,%3csvg fill='none' viewBox='0 0 24 11' xmlns='http://www.w3.org/2000/svg' xmlns:xlink='http://www.w3.org/1999/xlink'%3e%3cdefs%3e%3cfilter id='__svg-blur-9d31fd5f0fe6e9e13f56826548684048'%3e%3cfeGaussianBlur in='SourceGraphic' stdDeviation='40'/%3e%3c/filter%3e%3c/defs%3e%3cimage x='0' y='0' filter='url(%23__svg-blur-9d31fd5f0fe6e9e13f56826548684048)' width='24' height='11' xlink:href='data:image/png%3bbase64%2c/9j/2wBDAAYEBQYFBAYGBQYHBwYIChAKCgkJChQODwwQFxQYGBcUFhYaHSUfGhsjHBYWICwgIyYnKSopGR8tMC0oMCUoKSj/2wBDAQcHBwoIChMKChMoGhYaKCgoKCgoKCgoKCgoKCgoKCgoKCgoKCgoKCgoKCgoKCgoKCgoKCgoKCgoKCgoKCgoKCj/wAARCAAcAEADASIAAhEBAxEB/8QAGwAAAwACAwAAAAAAAAAAAAAABgcIAAQCAwX/xAA2EAACAQMCBAIGCAcAAAAAAAABAgMEBREABgcSITFRYQgTIkFxgRQVI2KRobLRMjNCc4KSwf/EABkBAAMBAQEAAAAAAAAAAAAAAAMEBQYAAf/EAC4RAAEDAgQBCwUAAAAAAAAAAAECAwQAEQUSITEGExQjMkFRcZGhsdFhgcHC8P/aAAwDAQACEQMRAD8Ap3OhW97zoqLclu2/RFaq7Vcyo8an2YE7sznx5QSF/HGl7xArOI9nF2un1lFS2VJSIkR4iyozcqgeznPUeeltw8t25bruCWr2xKouVOhlaeV16c3sk5YHJOTqc9NUFhtKTf8AH0raYbww05HXLfeQUgaWOgVbTMbaWJFwL/Na5Gs1NVfxA3xtvcoob5cmdqWVDPD6uMq69CQCF7EHuNPPd%2b6KWwbSnvQZZFaMGmXP813HsD/p8gdHalocCjtl3vUidw/JhqaTcL5XqlJJB27wO%2biLOkZvXjBebPuq5262U1tkpKWUxI8sbsxIAByQwHfPu1w4Wbr3duK9T1Nyu8ps1ujaoqsRRgNgEhMhffgn4A6TlXJPcrhVVPIzyys878ozjJLE6RlTSptJauL1qsB4YbZlutzsq8oG17AnxA1sPI1XWzNwx7h2lRXh%2bRDJETOq9kdchwM%2b7p08iNKra/FvcN%2b3ZQWuKktiwVNSI%2bYRPzCPPU/x9%2bUeGhnh5u76q2Ju21yycrNTmWmyf6nxGwH%2byn5HXb6Plu%2bl76aqK5WipnkB8GbCD9R13OlulpKTvvXgwGPAbnPPoBCepfs0uPcD7Ud%2bkbcfo%2b1aCgU4aqqedh4qi/uw1r%2bjbbvVWO7XFlw086wqT4IuT%2bbflrW49USV98tcczyBIqZioUjuXOfd5DR3wkoYaDYNtjg5sMZJGLdyS5/YaKkZ5pJ7B/e9IvrEbhpDad3Fa%2bZP6ilr6SFk9VX229xL7MyGmmP3l6qfmCR/jpcXfclxv9nsVlcM0VAhhiRSSZGLYBx4gYUfDz1SXFm3QXLYdxjqQcR8kqFe6sGHX8CR89Kng9tqgbe0E0oklamieeMORgOMAHt7s5%2bOl5TJ5xlSbBVqs4BiTYwjl3k5lMZreWnobUXXO0psHgncKXoK6oiCzuO7SykKRn7q5A%2bHnoC4BWWK7bluL1aB6aKieNx/c9j9PNpmcdYRVbXoqdndI3qwW5COuEbGtTgHbKegtd3kh5y8k6KxYg9ApIHbzOjKbBlIQNkiprExaMCkSlHpHVanxIHzap/3Da5bJfK621GfWUszRE%2bIB6H5jB07/Rst3qrNd7iy9Z51gU%2bSDJ/NhryeN1ho5t4R1X2iSz0yNJyEAMQSoPbwA/DTJ4RUUVBsK3xQc2GaR2LdyS5/YaFEYySiO69P8Q4qZOBNrtq5lv7n1Ff/2Q==' /%3e%3c/svg%3e"},"path":"/author/tv-n/"}]}}]}},"context":{}}