{"hash":"4c6a837c8b17cc33541652754af96fef7c4d3bbf","data":{"tag":{"title":"tag2","path":"/tags/tag2/","belongsTo":{"totalCount":7,"pageInfo":{"totalPages":2,"currentPage":2},"edges":[{"node":{"title":"Hotel del Luna","excerpt":"The peculiar Hotel del Luna has existed for several millennia catering to lost souls. It's CEO, Jang Man Wol, is cursed to run the establishment for all of eternity as punishment for a sin she can't remember.","image":{"type":"image","mimeType":"image/jpeg","src":"/6110110113_Assignment3_Gridsome/assets/static/hoteldelluna.0952095.3fa0f553a5e6259cbd38e16f4e0a670e.jpg","size":{"width":750,"height":500},"sizes":"(max-width: 750px) 100vw, 750px","srcset":["/6110110113_Assignment3_Gridsome/assets/static/hoteldelluna.0952095.3fa0f553a5e6259cbd38e16f4e0a670e.jpg 750w"],"dataUri":"data:image/svg+xml,%3csvg fill='none' viewBox='0 0 750 500' xmlns='http://www.w3.org/2000/svg' xmlns:xlink='http://www.w3.org/1999/xlink'%3e%3cdefs%3e%3cfilter id='__svg-blur-422b63e9e5493f2b8868a1333f146038'%3e%3cfeGaussianBlur in='SourceGraphic' stdDeviation='40'/%3e%3c/filter%3e%3c/defs%3e%3cimage x='0' y='0' filter='url(%23__svg-blur-422b63e9e5493f2b8868a1333f146038)' width='750' height='500' xlink:href='data:image/jpeg%3bbase64%2c/9j/2wBDAAYEBQYFBAYGBQYHBwYIChAKCgkJChQODwwQFxQYGBcUFhYaHSUfGhsjHBYWICwgIyYnKSopGR8tMC0oMCUoKSj/2wBDAQcHBwoIChMKChMoGhYaKCgoKCgoKCgoKCgoKCgoKCgoKCgoKCgoKCgoKCgoKCgoKCgoKCgoKCgoKCgoKCgoKCj/wAARCAArAEADASIAAhEBAxEB/8QAGgABAQADAQEAAAAAAAAAAAAABgUDBAcBAv/EADIQAAIBAwMCBAQFBAMAAAAAAAECAwQFEQASIQYxEyJBUQcUcYEVMmGRsSQ0cqFCgvD/xAAYAQADAQEAAAAAAAAAAAAAAAABAwQCAP/EACERAAIDAAEFAAMAAAAAAAAAAAECAAMREgQhMUFRYXHw/9oADAMBAAIRAxEAPwAPcqq7T0VbBchFPDPRuyz7VJBCbuCP0x31Fsdv2vMrL5kg5J%2bo0rvFe1RaZhT26SdoqLxpX8VYxDGyBc4P5jjPA9tZ7HaIbjZ7k8wf5VKdHkdeDs3DP7jjVlJXDI%2boZ%2bSg%2b4CmiqkKeM0iTs75KnaxHpnb39dIelpb1Z7gtclNcJAEZRksMAjGRnViGwUMHW9vjte5IHZWKNkhCoJ4zzj66Ex2i401HXV1ex%2bUvMckUVU8pKxkTBsueSowuPuNZNtQXfspWt1bN7iY7iKz53bWtUqzsSyyswB%2bx1Gq4nMFQZRyreUYAwNw9tP7f0m9V0ZLV/jEczUkxMKCcNCI%2bN4ORnccjRw0FTWSvRpF4lTUTGOCNQoLYYHHHA4B76fV1Nfcj1OetlzfcwWu3ePQUrLt/J5gwOD5xx/saV2%2b5XuSzTqkNLDTLv2oERRtVSRgHk8An31TprDJRfDxawIz1tNUGlanJGN3Jwf%2bwHY/zrJdJK%2bmuby1dVFUrXU81RJtiVBFKIz5FAJ8uD688aQ3UKx8bOKtxJHqY7ykln6du91mq5FEtvSBqUICqvt2jzep8x9NDPidbaq1WzpmRKqpRK%2b0xSyQFyqhwfYHB4wddVtMcNXQyR1sKzws5c4ZWj98jPoDnvqN8WjaKu0dLi%2bbod7PFDXQebFMnDAp7hto/fWHevlqHzAFcgcx48TjtvrrhBdjcvmJzJDMC8qyEMcLgDPrphfupUPwytdsSuqp5I6rDqU2IUXJCj1OC47%2b2id0WGmmZaaZqii8ZhFvUJuX0LEevfXxUGOClSnmO%2bXJdDE4YDOBg8d%2bPTSrV5ZN1uRsRWfqJ6bpats9NFCk1VJu8d8DCkgnJPbgY%2b51T6GuZjvMF2ucpSnpJ1imkiRW2%2bKCqZU/8NwwdvbI40epenK9%2bmZrynhimiOCrOAxHuB6j9O%2brND0TX3mp%2bWsQEtPJRR1Msb1Cx%2bIwxlQT383P6e%2bnbWycfsGOpDH1OidYPd7D0RdI5kX51b0lQXaPClGU7GUA8r5ccnuDnQPqPqmSqit01PMtRVzJM9bA8HhpTs25QEIPOQxI/8ADTrp/p%2b%2b3Ppe/wBjukpWoigghoYpmGFVGL4yP14zzjOufWPp6treqqS0yUsgqFmHzEbDGxFbzE%2bwwO/00a0TM%2bRVjPv7iazSvDXmQbgG3McepwTzrD8QzI9FZp5E/pjHI0RI4ydpbb7jOOdNBaqGOvppUp1VzPODgnBwpI47emtf4/RJF0r0f4ahcU8g4/xjP8nUdPe0H%2b8SvqV41ThV0cNSISoBJB%2bmpYb21Y6hAyg9BGD99o1EGq7DpkdQwTbjnDRrE8hKjkITx%2b2t%2bmp5aoxzSzyqIYykIHZUOTj6ZJ1LiRTTGQjzq6gH2Bzn%2bNJ1UJQ0u0YzRxMfqRzpyYSBkFhIGieNdLjQ0cFdTXGpimhnWGILIcLhC27v/rtzrdqviL1BPR1MvzbR3GVVjlq48K8iDsvbjR65E/hNOM8Gpc/fYupz/wBvL/kBpPEM538xqEqvb3P/2Q==' /%3e%3c/svg%3e"},"path":"/blog/hotel-del-luna/","timeToRead":3,"category":{"id":"Dark fantasy, Romantic comedy","title":"Dark fantasy, Romantic comedy"},"author":[{"id":"author3","name":"tvN","image":{"type":"image","mimeType":"image/png","src":"/6110110113_Assignment3_Gridsome/assets/static/tvN.3db9db9.5fdb79529105ae14979db2b05d9a03a1.png","size":{"width":24,"height":11},"sizes":"(max-width: 24px) 100vw, 24px","srcset":["/6110110113_Assignment3_Gridsome/assets/static/tvN.3db9db9.5fdb79529105ae14979db2b05d9a03a1.png 24w"],"dataUri":"data:image/svg+xml,%3csvg fill='none' viewBox='0 0 24 11' xmlns='http://www.w3.org/2000/svg' xmlns:xlink='http://www.w3.org/1999/xlink'%3e%3cdefs%3e%3cfilter id='__svg-blur-9d31fd5f0fe6e9e13f56826548684048'%3e%3cfeGaussianBlur in='SourceGraphic' stdDeviation='40'/%3e%3c/filter%3e%3c/defs%3e%3cimage x='0' y='0' filter='url(%23__svg-blur-9d31fd5f0fe6e9e13f56826548684048)' width='24' height='11' xlink:href='data:image/png%3bbase64%2c/9j/2wBDAAYEBQYFBAYGBQYHBwYIChAKCgkJChQODwwQFxQYGBcUFhYaHSUfGhsjHBYWICwgIyYnKSopGR8tMC0oMCUoKSj/2wBDAQcHBwoIChMKChMoGhYaKCgoKCgoKCgoKCgoKCgoKCgoKCgoKCgoKCgoKCgoKCgoKCgoKCgoKCgoKCgoKCgoKCj/wAARCAAcAEADASIAAhEBAxEB/8QAGwAAAwACAwAAAAAAAAAAAAAABgcIAAQCAwX/xAA2EAACAQMCBAIGCAcAAAAAAAABAgMEBREABgcSITFRYQgTIkFxgRQVI2KRobLRMjNCc4KSwf/EABkBAAMBAQEAAAAAAAAAAAAAAAMEBQYAAf/EAC4RAAEDAgQBCwUAAAAAAAAAAAECAwQAEQUSITEGExQjMkFRcZGhsdFhgcHC8P/aAAwDAQACEQMRAD8Ap3OhW97zoqLclu2/RFaq7Vcyo8an2YE7sznx5QSF/HGl7xArOI9nF2un1lFS2VJSIkR4iyozcqgeznPUeeltw8t25bruCWr2xKouVOhlaeV16c3sk5YHJOTqc9NUFhtKTf8AH0raYbww05HXLfeQUgaWOgVbTMbaWJFwL/Na5Gs1NVfxA3xtvcoob5cmdqWVDPD6uMq69CQCF7EHuNPPd%2b6KWwbSnvQZZFaMGmXP813HsD/p8gdHalocCjtl3vUidw/JhqaTcL5XqlJJB27wO%2biLOkZvXjBebPuq5262U1tkpKWUxI8sbsxIAByQwHfPu1w4Wbr3duK9T1Nyu8ps1ujaoqsRRgNgEhMhffgn4A6TlXJPcrhVVPIzyys878ozjJLE6RlTSptJauL1qsB4YbZlutzsq8oG17AnxA1sPI1XWzNwx7h2lRXh%2bRDJETOq9kdchwM%2b7p08iNKra/FvcN%2b3ZQWuKktiwVNSI%2bYRPzCPPU/x9%2bUeGhnh5u76q2Ju21yycrNTmWmyf6nxGwH%2byn5HXb6Plu%2bl76aqK5WipnkB8GbCD9R13OlulpKTvvXgwGPAbnPPoBCepfs0uPcD7Ud%2bkbcfo%2b1aCgU4aqqedh4qi/uw1r%2bjbbvVWO7XFlw086wqT4IuT%2bbflrW49USV98tcczyBIqZioUjuXOfd5DR3wkoYaDYNtjg5sMZJGLdyS5/YaKkZ5pJ7B/e9IvrEbhpDad3Fa%2bZP6ilr6SFk9VX229xL7MyGmmP3l6qfmCR/jpcXfclxv9nsVlcM0VAhhiRSSZGLYBx4gYUfDz1SXFm3QXLYdxjqQcR8kqFe6sGHX8CR89Kng9tqgbe0E0oklamieeMORgOMAHt7s5%2bOl5TJ5xlSbBVqs4BiTYwjl3k5lMZreWnobUXXO0psHgncKXoK6oiCzuO7SykKRn7q5A%2bHnoC4BWWK7bluL1aB6aKieNx/c9j9PNpmcdYRVbXoqdndI3qwW5COuEbGtTgHbKegtd3kh5y8k6KxYg9ApIHbzOjKbBlIQNkiprExaMCkSlHpHVanxIHzap/3Da5bJfK621GfWUszRE%2bIB6H5jB07/Rst3qrNd7iy9Z51gU%2bSDJ/NhryeN1ho5t4R1X2iSz0yNJyEAMQSoPbwA/DTJ4RUUVBsK3xQc2GaR2LdyS5/YaFEYySiO69P8Q4qZOBNrtq5lv7n1Ff/2Q==' /%3e%3c/svg%3e"},"path":"/author/tv-n/"}]}},{"node":{"title":"Reply 1988","excerpt":"Five childhood friends who live in the same neighborhood of Ssangmundong rely on each other as they enter the peak of their turbulent teen years.","image":{"type":"image","mimeType":"image/jpeg","src":"/6110110113_Assignment3_Gridsome/assets/static/reply1988.81e9da1.bd7dc556f07283227c3a262ce1628633.jpg","size":{"width":777,"height":411},"sizes":"(max-width: 777px) 100vw, 777px","srcset":["/6110110113_Assignment3_Gridsome/assets/static/reply1988.81e9da1.bd7dc556f07283227c3a262ce1628633.jpg 777w"],"dataUri":"data:image/svg+xml,%3csvg fill='none' viewBox='0 0 777 411' xmlns='http://www.w3.org/2000/svg' xmlns:xlink='http://www.w3.org/1999/xlink'%3e%3cdefs%3e%3cfilter id='__svg-blur-249b20025b9be6fe5d75aa651de3961e'%3e%3cfeGaussianBlur in='SourceGraphic' stdDeviation='40'/%3e%3c/filter%3e%3c/defs%3e%3cimage x='0' y='0' filter='url(%23__svg-blur-249b20025b9be6fe5d75aa651de3961e)' width='777' height='411' xlink:href='data:image/jpeg%3bbase64%2c/9j/2wBDAAYEBQYFBAYGBQYHBwYIChAKCgkJChQODwwQFxQYGBcUFhYaHSUfGhsjHBYWICwgIyYnKSopGR8tMC0oMCUoKSj/2wBDAQcHBwoIChMKChMoGhYaKCgoKCgoKCgoKCgoKCgoKCgoKCgoKCgoKCgoKCgoKCgoKCgoKCgoKCgoKCgoKCgoKCj/wAARCAAiAEADASIAAhEBAxEB/8QAGwAAAgIDAQAAAAAAAAAAAAAABQYABAIDBwH/xAAzEAACAgEDAwMCBAMJAAAAAAABAgMEEQAFIQYSMRNBUSJhFBUycQcWkSMzUmKBkqGx0f/EABgBAQADAQAAAAAAAAAAAAAAAAMCBAUA/8QAJhEAAQMDAgUFAAAAAAAAAAAAAQACAxESITFxBCIyQVETM2GBwf/aAAwDAQACEQMRAD8AD7Pcrbtsdh7LLHPAD6n9kcBfAIIbIPt4xp46DtVoYK0DyAWJFJYDLcAgD5wOfPjnSvuHpUNks7fUpwLUWOWX6JGd3csmVJZQSOfGim62KfSstaveuqr2K0ckrqP088Iw84z4x9%2bNYxYS6rQtM00OKrrNa2g74iRnBU8jjjS32flZk26bcpJJlVWdvQUd4ceB9XH6T/XSvu9mYbMd2221DLtbSG2ZVYj9R7SP2GjOw2LNvaIdxobxZsUW7g8i4OZAOAufAB4I%2b2nkNw5sKuxmaNymCvulNbKxepMWtSrCCV%2bT%2b/3GtHWKQTwfgZEEiQqqBvc/Pv8AI1QsdXmptX5nadnrAOrRkdpZsgL2Dz/izpIudRwNeuQ04gI69cWrHpscHwMZyefqGTpeFYwHOVCdrgMYKJbq1NX9FfxFpoEWI9g7AoxwMsc4%2bDjWlJ8xL6FKtGqcgzZkYZ%2b/A1Rp9Rw7/u6xRQSekKvdI5wCgXwn3AzwffPjXtDc9oZjF%2bMQuXKoFHBGP/dV5Q4Yorcdu6y6qlrhpz3L2CtIXP8Am7kz/wBaMW%2bnDv8Au1bfobcadlaKNF7Q/dKoI5z4A8fOdDOra9TcjXgruALEMkasngrgEYA49hoh0zuibJs%2b41Zv0UrCgMykKUkRWH%2boOcgfI10OTaulJqHNWfVW7x9IbHXrJTS2LBaNUICoD5Zjx8nI%2b%2bqHSvUv87RT9K1Kq13TFpC5CrOqsC6MFGBn7e2hPXMNnda4mo3zelllaVI2bsjSLHPZkc8YB850E6IO4bRdn3w2Nshs0YU7IGP97GzYOewfqPgE86csYWXfSMeo11p3TJvvTtxd1qbDOte5WrWYhLH3mMF5u5lRQPKqMDP/ABxoLY2temr%2b7SVo0fbLlCaCxErBDV5GAp5yM8Z0Zm6rn3C1JasWI6zI4eeMt2tWbPPBByuMHP3xpb3yCruFBJNuuWfzC7YlOX4jsL3FgOeFxjj9udTbyvAcfjZJNWRgcCDiqvdMWdkrfmdmkbEXeiQukwwI0ABzgeSxHt9/nVO9W26xco/gFhhkSUBUDknLHJLe2OfGeNDekYryS3Fs0bDU5q7wZjKtg5yCRnxn39tXOmdsk3WxZqj1I7dWRO3txyfqJB/28HUZm2SFtagUofOETDc2vlXf4ZsZI3ZyWZJ/pJ5K8e3xq1/FmR/Sjj727DZLFc8E9i841NTR8L7x2TwdUe6QtplkbcEVnYqsiqATwASMjXQ99rw14uoY4Io4o1o1yFRQoB9Qew1NTVqXQb/oVzjtW7FAes4Y03%2bIpGimS%2bUchQO9e6Lg/I%2b2nrquvD%2bQ9RD0o8RVZTH9I%2bg9vkfGpqamNAsQ9S51Ynmj3dkjlkVO2H6VYgcxpn%2budZyO0HVExgYxn8ZGPoOPZvjU1NFJ2SR91//Z' /%3e%3c/svg%3e"},"path":"/blog/reply-1988/","timeToRead":6,"category":{"id":"Family, Comedy, Romance","title":"Family, Comedy, Romance"},"author":[{"id":"author3","name":"tvN","image":{"type":"image","mimeType":"image/png","src":"/6110110113_Assignment3_Gridsome/assets/static/tvN.3db9db9.5fdb79529105ae14979db2b05d9a03a1.png","size":{"width":24,"height":11},"sizes":"(max-width: 24px) 100vw, 24px","srcset":["/6110110113_Assignment3_Gridsome/assets/static/tvN.3db9db9.5fdb79529105ae14979db2b05d9a03a1.png 24w"],"dataUri":"data:image/svg+xml,%3csvg fill='none' viewBox='0 0 24 11' xmlns='http://www.w3.org/2000/svg' xmlns:xlink='http://www.w3.org/1999/xlink'%3e%3cdefs%3e%3cfilter id='__svg-blur-9d31fd5f0fe6e9e13f56826548684048'%3e%3cfeGaussianBlur in='SourceGraphic' stdDeviation='40'/%3e%3c/filter%3e%3c/defs%3e%3cimage x='0' y='0' filter='url(%23__svg-blur-9d31fd5f0fe6e9e13f56826548684048)' width='24' height='11' xlink:href='data:image/png%3bbase64%2c/9j/2wBDAAYEBQYFBAYGBQYHBwYIChAKCgkJChQODwwQFxQYGBcUFhYaHSUfGhsjHBYWICwgIyYnKSopGR8tMC0oMCUoKSj/2wBDAQcHBwoIChMKChMoGhYaKCgoKCgoKCgoKCgoKCgoKCgoKCgoKCgoKCgoKCgoKCgoKCgoKCgoKCgoKCgoKCgoKCj/wAARCAAcAEADASIAAhEBAxEB/8QAGwAAAwACAwAAAAAAAAAAAAAABgcIAAQCAwX/xAA2EAACAQMCBAIGCAcAAAAAAAABAgMEBREABgcSITFRYQgTIkFxgRQVI2KRobLRMjNCc4KSwf/EABkBAAMBAQEAAAAAAAAAAAAAAAMEBQYAAf/EAC4RAAEDAgQBCwUAAAAAAAAAAAECAwQAEQUSITEGExQjMkFRcZGhsdFhgcHC8P/aAAwDAQACEQMRAD8Ap3OhW97zoqLclu2/RFaq7Vcyo8an2YE7sznx5QSF/HGl7xArOI9nF2un1lFS2VJSIkR4iyozcqgeznPUeeltw8t25bruCWr2xKouVOhlaeV16c3sk5YHJOTqc9NUFhtKTf8AH0raYbww05HXLfeQUgaWOgVbTMbaWJFwL/Na5Gs1NVfxA3xtvcoob5cmdqWVDPD6uMq69CQCF7EHuNPPd%2b6KWwbSnvQZZFaMGmXP813HsD/p8gdHalocCjtl3vUidw/JhqaTcL5XqlJJB27wO%2biLOkZvXjBebPuq5262U1tkpKWUxI8sbsxIAByQwHfPu1w4Wbr3duK9T1Nyu8ps1ujaoqsRRgNgEhMhffgn4A6TlXJPcrhVVPIzyys878ozjJLE6RlTSptJauL1qsB4YbZlutzsq8oG17AnxA1sPI1XWzNwx7h2lRXh%2bRDJETOq9kdchwM%2b7p08iNKra/FvcN%2b3ZQWuKktiwVNSI%2bYRPzCPPU/x9%2bUeGhnh5u76q2Ju21yycrNTmWmyf6nxGwH%2byn5HXb6Plu%2bl76aqK5WipnkB8GbCD9R13OlulpKTvvXgwGPAbnPPoBCepfs0uPcD7Ud%2bkbcfo%2b1aCgU4aqqedh4qi/uw1r%2bjbbvVWO7XFlw086wqT4IuT%2bbflrW49USV98tcczyBIqZioUjuXOfd5DR3wkoYaDYNtjg5sMZJGLdyS5/YaKkZ5pJ7B/e9IvrEbhpDad3Fa%2bZP6ilr6SFk9VX229xL7MyGmmP3l6qfmCR/jpcXfclxv9nsVlcM0VAhhiRSSZGLYBx4gYUfDz1SXFm3QXLYdxjqQcR8kqFe6sGHX8CR89Kng9tqgbe0E0oklamieeMORgOMAHt7s5%2bOl5TJ5xlSbBVqs4BiTYwjl3k5lMZreWnobUXXO0psHgncKXoK6oiCzuO7SykKRn7q5A%2bHnoC4BWWK7bluL1aB6aKieNx/c9j9PNpmcdYRVbXoqdndI3qwW5COuEbGtTgHbKegtd3kh5y8k6KxYg9ApIHbzOjKbBlIQNkiprExaMCkSlHpHVanxIHzap/3Da5bJfK621GfWUszRE%2bIB6H5jB07/Rst3qrNd7iy9Z51gU%2bSDJ/NhryeN1ho5t4R1X2iSz0yNJyEAMQSoPbwA/DTJ4RUUVBsK3xQc2GaR2LdyS5/YaFEYySiO69P8Q4qZOBNrtq5lv7n1Ff/2Q==' /%3e%3c/svg%3e"},"path":"/author/tv-n/"}]}}]}}},"context":{}}